Covid-19 Report
…
Rows: 6552 Columns: 8
── Column specification ────────────────────────────────────────────────────────
Delimiter: ","
chr (5): Data as of, State, End Week, Sex, Age Group
dbl (3): MMWR Week, Total Deaths, COVID-19 Deaths

ℹ Use `spec()` to retrieve the full column specification for this data.
ℹ Specify the column types or set `show_col_types = FALSE` to quiet this message.

Data Manipulation

# A tibble: 2,002 × 8
   `Data as of` State    `MMWR Week` `End Week` Sex   `Age Group` `Total Deaths`
   <chr>        <chr>          <dbl> <chr>      <chr> <chr>                <dbl>
 1 06/28/2023   United …           1 01/04/2020 All … Under 1 ye…            403
 2 06/28/2023   United …           1 01/04/2020 All … 1-4 Years               79
 3 06/28/2023   United …           1 01/04/2020 All … 5-14 Years              99
 4 06/28/2023   United …           1 01/04/2020 All … 15-24 Years            605
 5 06/28/2023   United …           1 01/04/2020 All … 25-34 Years           1261
 6 06/28/2023   United …           1 01/04/2020 All … 35-44 Years           1771
 7 06/28/2023   United …           1 01/04/2020 All … 45-54 Years           3284
 8 06/28/2023   United …           1 01/04/2020 All … 55-64 Years           7936
 9 06/28/2023   United …           1 01/04/2020 All … 65-74 Years          11789
10 06/28/2023   United …           1 01/04/2020 All … 75-84 Years          14546
# ℹ 1,992 more rows
# ℹ 1 more variable: `COVID-19 Deaths` <dbl>
…
Age Group Model (R² = 0.356):

An R² value of 35.6% means that about 35.6% of the variation in COVID-19 deaths can be explained by the age group variable.

This is a more substantial proportion compared to the sex model, meaning that age group is a more significant predictor of COVID-19 deaths than sex.

The higher R² value here indicates that as one moves across different age groups, the variation in COVID-19 death counts changes more noticeably than it does between different sexes.

However, an R² of 0.356 also means that a significant portion of the variability (around 64.4%) is still unexplained by the age group variable alone.

We then utilize an AIC model to determine whether using both variables (age and sex) in conjunction with each other is more effective in predicting COVID-19 mortality rates than using them independently.

First a new dataset is created to remove all the rows with “All Sex” and “All Age” groups. This way, we can introduce the AIC model to analyze both of the variables as predictors, which wouldn’t be accurate if we kept the “All Sex” and “All Age” groups.

# A tibble: 4,004 × 8
   `Data as of` State    `MMWR Week` `End Week` Sex   `Age Group` `Total Deaths`
   <chr>        <chr>          <dbl> <chr>      <chr> <chr>                <dbl>
 1 06/28/2023   United …           1 01/04/2020 Male  Under 1 ye…            214
 2 06/28/2023   United …           1 01/04/2020 Male  1-4 Years               42
 3 06/28/2023   United …           1 01/04/2020 Male  5-14 Years              51
 4 06/28/2023   United …           1 01/04/2020 Male  15-24 Years            445
 5 06/28/2023   United …           1 01/04/2020 Male  25-34 Years            888
 6 06/28/2023   United …           1 01/04/2020 Male  35-44 Years           1127
 7 06/28/2023   United …           1 01/04/2020 Male  45-54 Years           2020
 8 06/28/2023   United …           1 01/04/2020 Male  55-64 Years           4801
 9 06/28/2023   United …           1 01/04/2020 Male  65-74 Years           6736
10 06/28/2023   United …           1 01/04/2020 Male  75-84 Years           7451
# ℹ 3,994 more rows
# ℹ 1 more variable: `COVID-19 Deaths` <dbl>
…
[1] "Adjusted R-squared for Sex model: 0.00718502253836661"

[1] "Adjusted R-squared for Age Group model: 0.353081718706214"

[1] "Adjusted R-squared for Age Group and Sex Interaction model: 0.354517007785536"

Because the AIC is lower for models with the two predictors ‘Age Group’ and ‘Sex’, compared to the model with only the ‘Age Group’ model, then the model with both predictors is better-fitting because AIC rewards models that provide a good fit to the data.

Moreover, when comparing adjusted R-Squared values, the interaction model offers a slight improvement over the Age Group model alone. This suggests that considering both age and sex, along with their interaction, provides a more comprehensive understanding of the factors influencing COVID-19 mortality rates.

# A tibble: 22 × 5
   term                         estimate std.error statistic  p.value
   <chr>                           <dbl>     <dbl>     <dbl>    <dbl>
 1 (Intercept)                     0.703      33.8    0.0208 9.83e- 1
 2 `Age Group`15-24 Years          5.98       47.8    0.125  9.00e- 1
 3 `Age Group`25-34 Years         25.4        47.8    0.531  5.95e- 1
 4 `Age Group`35-44 Years         62.2        47.8    1.30   1.94e- 1
 5 `Age Group`45-54 Years        141.         47.8    2.96   3.14e- 3
 6 `Age Group`5-14 Years           0.632      47.8    0.0132 9.89e- 1
 7 `Age Group`55-64 Years        337.         47.8    7.04   2.20e-12
 8 `Age Group`65-74 Years        570.         47.8   11.9    3.17e-32
 9 `Age Group`75-84 Years        718.         47.8   15.0    1.74e-49
10 `Age Group`85 Years and Over  944.         47.8   19.7    9.66e-83
# ℹ 12 more rows
…
